Reproducible Finance with R
…
## Warning in (0.5 * as.vector(dpm2))/sqrt(pm2): Recycling array of length 1 in vector-array arithmetic is deprecated.
##   Use c() or as.vector() instead.

## Warning in contrib/sqrt(pm2): Recycling array of length 1 in vector-array arithmetic is deprecated.
##   Use c() or as.vector() instead.

## Warning in tk_tbl.data.frame(as.data.frame(data), preserve_index,
## rename_index, : Warning: No index to preserve. Object otherwise converted
## to tibble successfully.

portfolio_vol_components_tidy

## # A tibble: 53 x 6
##    date         SPY   EFA   IJS   EEM    AGG
##    <date>     <dbl> <dbl> <dbl> <dbl>  <dbl>
##  1 2013-08-31  21.6  36.9  13.9  24.0  3.62 
##  2 2013-09-30  26.3  31.8  20.2  18.5  3.23 
##  3 2013-10-31  19.0  33.3  19.2  25.3  3.22 
##  4 2013-11-30  20.3  31.1  19.1  26.3  3.23 
##  5 2013-12-31  22.2  29.1  21.5  24.4  2.83 
##  6 2014-01-31  22.4  28.4  25.0  21.6  2.47 
##  7 2014-02-28  21.4  28.7  21.1  28.6  0.211
##  8 2014-03-31  19.5  31.1  18.9  31.0 -0.542
##  9 2014-04-30  23.9  29.4  18.3  29.6 -1.23 
## 10 2014-05-31  23.4  30.1  19.6  28.8 -1.82 
## # ... with 43 more rows
…
