Reproducible Finance with R
…
Portfolio Returns in the tidyverse

We have our tidy object of asset returns and we need to add a weights column to it using the mutate() function. Each asset should be weighted according to the w vector. We can nested if_else() statements for this to make sure our weights match our assets.

portfolio_returns_dplyr_byhand <- 
  asset_returns_long %>%
  group_by(asset) %>% 
    mutate(weights = if_else(asset == symbols[1], w[1],
                            if_else(asset == symbols[2], w[2],
                                    if_else(asset == symbols[3], w[3],
                                            if_else(asset == symbols[4], w[4], w[5])))))

portfolio_returns_dplyr_byhand

## # A tibble: 295 x 4
## # Groups:   asset [5]
##    date       asset returns weights
##    <date>     <chr>   <dbl>   <dbl>
##  1 2013-02-28 SPY    0.0127   0.250
##  2 2013-03-28 SPY    0.0373   0.250
##  3 2013-04-30 SPY    0.0190   0.250
##  4 2013-05-31 SPY    0.0233   0.250
##  5 2013-06-28 SPY   -0.0134   0.250
##  6 2013-07-31 SPY    0.0504   0.250
##  7 2013-08-30 SPY   -0.0305   0.250
##  8 2013-09-30 SPY    0.0312   0.250
##  9 2013-10-31 SPY    0.0453   0.250
## 10 2013-11-29 SPY    0.0292   0.250
## # ... with 285 more rows
…
portfolio_returns_dplyr_byhand <- 
asset_returns_long %>%
  group_by(asset) %>% 
    mutate(weights = if_else(asset == symbols[1], w[1],
                            if_else(asset == symbols[2], w[2],
                                    if_else(asset == symbols[3], w[3],
                                            if_else(asset == symbols[4], w[4], w[5])))),
           weighted_returns = returns * weights) %>% 
  group_by(date) %>% 
  summarise(port_returns = sum(weighted_returns))

portfolio_returns_dplyr_byhand

## # A tibble: 59 x 2
##    date       port_returns
##    <date>            <dbl>
##  1 2013-02-28    -0.000870
##  2 2013-03-28     0.0187  
##  3 2013-04-30     0.0206  
##  4 2013-05-31    -0.00535 
##  5 2013-06-28    -0.0229  
##  6 2013-07-31     0.0412  
##  7 2013-08-30    -0.0255  
##  8 2013-09-30     0.0544  
##  9 2013-10-31     0.0352  
## 10 2013-11-29     0.0162  
## # ... with 49 more rows
…
